{
  "npmScope": "web-platform",
  "affected": {
    "defaultBase": "master"
  },
  "implicitDependencies": {
    "package.json": {
      "dependencies": "*",
      "devDependencies": "*"
    },
    ".eslintrc.json": "*"
  },
  "tasksRunnerOptions": {
    "default": {
      "runner": "@nrwl/nx-cloud",
      "options": {
        "cacheableOperations": [
          "build",
          "lint",
          "test",
          "e2e"
        ],
        "accessToken": "ZDRkZjU1ZGUtODNkYi00ODY1LThkYjItZDg5YTU4MmE0OTg2fHJlYWQtd3JpdGU=",
        "canTrackAnalytics": false,
        "showUsageWarnings": true
      }
    }
  },
  "targetDependencies": {
    "build": [
      {
        "target": "build",
        "projects": "dependencies"
      }
    ]
  },
  "projects": {
    "sg": {
      "tags": []
    },
    "sg-e2e": {
      "tags": [],
      "implicitDependencies": [
        "sg"
      ]
    }
  }
}